[
    {
        "img": "bookstore/images/economy/image1.jpg",
        "title": "Диагностика и промяна на организационната култура",
        "author": "Робърт Е. Куин, Ким С. Камерън",
        "price": "20",
        "pages": "274",
        "description": "Диагностика и промяна на организационната култура предлага една рамка, инструмент за осмисляне, комплекс от систематизирани стъпки, и методология за подпомагане както на мениджъри, така и на огранизации за провеждане на внимателен анализ и изменения в тяхната фундаментална култура.",
        "brand": "economy"
    },
    {
        "img": "bookstore/images/economy/image2.jpg",
        "title": "Икономика за dummies",
        "author": "Питър Анониони, Шон Масаки",
        "price": "18",
        "pages": "416",
        "description": "Най-лесният начин да разберете света на икономиката Овладейте основите на микро- и макроикономиката! Ако смятате, че икономиката е сложна дисциплина, предназначена само за теоретиците и интелектуалците и вие нямате нищо общо с нея, помислете отново! ",
        "brand": "economy"
    },
    {
        "img": "bookstore/images/economy/image3.jpg",
        "title": "Корпоративна социална отговорност",
        "author": "Филип Котлър, Нанси Лий",
        "price": "20",
        "pages": "320",
        "description": "Въпреки че тази книга е написана предимно за стопански организации, целящи печалба, и техните комуникационни агенции и фондации, тя може да е полезна и за хора от нестопански организации и агенции от публичния сектор, търсещи корпоративна подкрепа и партньорство за социални инициативи. Тя предлага уникална възможност отблизо да се видят корпоративните желания и нужди.",
        "brand": "economy"
    },
    {
        "img": "bookstore/images/economy/image4.jpg",
        "title": "Наръчник по забогатяване",
        "author": "Шарън Л. Лехтър, Робърт Т. Кийосаки",
        "price": "8",
        "pages": "128",
        "description": "Станете богати без да ви нарежат кредитните карти и превърнете лошия дълг в добър дълг с тази книга от автора на бестселъра \"Богат татко, беден татко\" и основател на марката \"Богат татко\" Робърт Кийосаки.",
        "brand": "economy"
    }
]